R’da ggplot2 paketi kullanarak Türkiye Haritası Çizdirmek
…
chp_data <- chp_data |>  mutate(
    NAME_1 = stringr::str_extract(Il, "^[A-Za-zÇĞÖŞÜİ]+") #sayısal değerleri çıkarttık 
  ) |>   group_by(NAME_1) %>%
  # Aynı şehirlerin ortalama CHP_%% değerini hesapla
  summarise(
    CHP_oy = mean(`CHP_%`, na.rm = TRUE),
    .groups = "drop"
  ) |>  mutate(
    NAME_1 = stringr::str_to_sentence(NAME_1)
  )

chp_data

# A tibble: 81 × 2
   NAME_1         CHP_oy
   <chr>           <dbl>
 1 Adana            28.5
 2 Adiyaman         18.5
 3 Afyonkarahi̇sar   18.4
 4 Aksaray           0  
 5 Amasya           29.6
 6 Ankara           30.0
 7 Antalya          32.3
 8 Ardahan          29.6
 9 Artvi̇n           29.7
10 Aydin            35.5
# ℹ 71 more rows
…
