…
```{r}
chp_data
```

```
# A tibble: 81 × 2
   NAME_1         CHP_oy
   <chr>           <dbl>
 1 Adana            28.5
 2 Adiyaman         18.5
 3 Afyonkarahi̇sar   18.4
 4 Aksaray           0  
 5 Amasya           29.6
 6 Ankara           30.0
 7 Antalya          32.3
 8 Ardahan          29.6
 9 Artvi̇n           29.7
10 Aydin            35.5
# ℹ 71 more rows
```
…
